[
	{
		"id":1,
		"name":"Reebok Classic Old Shoes",
		"price":5900,
		"url":"./assets/shoes-images/000001.jpg",
		"color":"white"
	},{
		"id":2,
		"name":"Reebok Running Shoes",
		"price":2500,
		"url":"./assets/shoes-images/000002.jpg",
		"color":"black"
	},{
		"id":3,
		"name":"Reebok Running Shoes",
		"price":2500,
		"url":"./assets/shoes-images/000003.jpg",
		"color":"blue"
	},{
		"id":4,
		"name":"Reebok Casual Shoes",
		"price":3300,
		"url":"./assets/shoes-images/000004.jpg",
		"color":"brown"
	},{
		"id":5,
		"name":"Reebok Speed Shoes",
		"price":3000,
		"url":"./assets/shoes-images/000005.jpg",
		"color":"grey"
	},{
		"id":6,
		"name":"Reebok Classic Shoe",
		"price":4500,
		"url":"./assets/shoes-images/000006.jpg",
		"color":"white"
	},{
		"id":7,
		"name":"Reebok Training Shoes",
		"price":2800,
		"url":"./assets/shoes-images/000007.jpg",
		"color":"red"
	},{
		"id":8,
		"name":"Reebok Nano X Shoes",
		"price":4000,
		"url":"./assets/shoes-images/000008.jpg",
		"color":"grey"
	},{
		"id":9,
		"name":"Reebok Nano X Shoes",
		"price":4000,
		"url":"./assets/shoes-images/000009.jpg",
		"color":"green"
	},{
		"id":8,
		"name":"Reebok Classic Shoes",
		"price":3500,
		"url":"./assets/shoes-images/000010.jpg",
		"color":"white"
	},{
		"id":9,
		"name":"Reebok Basketball Shoes",
		"price":5000,
		"url":"./assets/shoes-images/000011.jpg",
		"color":"white"
	},{
		"id":10
		,"name":"Reebok Nano X Shoes",
		"price":4100,
		"url":"./assets/shoes-images/000012.jpg",
		"color":"red"
	},{
		"id":11
		,"name":"Reebok Leather Shoes",
		"price":4900,
		"url":"./assets/shoes-images/000013.jpg",
		"color":"blue"
	}
]